person_1,person_1_emo,person_1_score,person_2,person_2_emo,person_2_score,person_3,person_3_emo,person_3_score,person_4,person_4_emo,person_4_score
[ 877.9810806   445.55130223 1039.7409653   681.28436061],fearful,0.9938588738441467,[ 876.17651458   80.20030347 1040.92834381  323.83364733],sad,0.8763059377670288,[235.81866255  62.9864473  396.72128496 296.37005905],happy,0.9336833357810974,,,
[ 877.9793234   445.52396976 1039.76231283  681.32435661],fearful,0.9938588738441467,[ 876.15917604   80.35194602 1040.89490618  323.88274462],sad,0.8763059377670288,[235.83913259  62.97281837 396.70267631 296.28467596],happy,0.9336833357810974,,,
[ 877.98447588  445.51070601 1039.77606377  681.32656133],fearful,0.9938588738441467,[ 876.12027904   80.32302972 1040.87107251  323.87472474],sad,0.8763059377670288,[235.86777627  62.96818115 396.68644947 296.23069319],happy,0.9336833357810974,,,
[ 877.9008124   446.50532663 1040.24271355  683.08494128],fearful,0.9938588738441467,[ 876.54130043   80.70574698 1040.99544431  323.82312816],sad,0.8763059377670288,[235.86082551  62.01830437 396.67265154 296.11557314],happy,0.9336833357810974,,,
[ 877.71796132  447.83362804 1040.56157982  685.27258235],fearful,0.9938588738441467,[ 876.6643128    81.2493605  1040.8598218   323.77427868],sad,0.8763059377670288,[236.1165188   61.03689937 396.35580073 294.95872041],happy,0.9336833357810974,,,
[ 877.74465107  449.66104739 1041.9829417   690.70397851],fearful,0.9938588738441467,[ 876.25099923   83.55381879 1040.5160227   324.81964047],sad,0.8763059377670288,[235.79619396  56.47066814 395.18745709 288.7155244 ],happy,0.9336833357810974,,,
[ 877.67500931  449.81982464 1042.52819117  692.85965977],fearful,0.9938588738441467,[ 876.06673095   84.50705237 1040.42948109  324.98102157],sad,0.8763059377670288,[235.78947924  55.19985087 394.73937462 286.53137326],happy,0.9336833357810974,,,
[ 877.61959871  449.57993391 1042.72386661  693.76820724],fearful,0.9938588738441467,[ 875.97831342   84.9373744  1040.4338856   324.90277126],sad,0.8763059377670288,[235.85045352  54.94111703 394.55979862 285.74149639],happy,0.9336833357810974,,,
[ 878.03008977  449.40264197 1042.80913573  693.55887518],fearful,0.9938588738441467,[ 875.53565805   85.33009998 1040.08773686  325.23938906],sad,0.8763059377670288,[235.78269019  55.22104184 394.28622176 285.63021687],happy,0.9336833357810974,,,
[ 878.37401224  449.8229858  1042.66794733  693.33214234],fearful,0.9938588738441467,[ 874.84759803   85.31849729 1039.65443042  325.86441255],sad,0.8763059377670288,[235.9056158   55.68366823 394.22309187 286.51256245],happy,0.9336833357810974,,,
[ 879.93985374  450.97231731 1043.09630745  691.52952908],fearful,0.9938588738441467,[ 873.19905279   86.07505025 1038.64886801  328.51112998],sad,0.8763059377670288,[237.15664324  58.02568655 395.39452404 291.64480002],happy,0.9336833357810974,,,
[ 880.67138512  451.7962284  1043.07900359  690.33032527],fearful,0.9938588738441467,[ 872.50471448   86.00987837 1038.36289975  329.75431969],sad,0.8763059377670288,[237.67334809  58.44842742 395.78544124 294.05525468],happy,0.9336833357810974,,,
[ 881.03198884  452.48658643 1042.94498574  689.60034166],fearful,0.9938588738441467,[ 872.20400674   85.72138942 1038.32327542  330.37452919],sad,0.8763059377670288,[237.90711251  58.29178006 395.88576247 295.33443294],happy,0.9336833357810974,,,
[ 881.29204181  453.06655476 1043.47563558  690.91567012],fearful,0.9938588738441467,[ 871.80516072   86.14111179 1038.203401    331.61148692],sad,0.8763059377670288,[238.21261324  57.91999645 396.05703987 296.03086231],happy,0.9336833357810974,,,
[ 880.85123853  454.59970245 1044.33570707  697.119105  ],fearful,0.9938588738441467,[ 871.48930425   86.61587041 1037.99740055  332.80795543],sad,0.8763059377670288,[238.4336903   57.53833714 396.32222838 296.30830963],happy,0.9336833357810974,,,
[ 881.7177308   453.37411697 1046.29071141  701.02354549],fearful,0.9996341466903687,[ 871.03195763   90.96903854 1036.73409757  335.74985947],sad,0.9993661046028137,[240.00964285  55.02127547 398.15998762 290.38013539],happy,0.9935621023178101,,,
[ 881.89255217  452.03245855 1047.13978271  703.32902915],fearful,0.9996341466903687,[ 871.00178378   92.78639244 1036.13118097  336.58171403],sad,0.9993661046028137,[240.55088089  54.62332174 398.90464704 287.57504509],happy,0.9935621023178101,,,
[ 881.86190016  450.87706986 1047.51557638  704.78459394],fearful,0.9996341466903687,[ 871.10732729   93.61100297 1035.8166439   336.71176219],sad,0.9993661046028137,[240.70810536  54.89311629 399.22438052 286.13719975],happy,0.9935621023178101,,,
[ 882.23522839  445.64423135 1048.29127483  697.90452862],fearful,0.9996341466903687,[ 871.48004001   94.85787997 1035.74592625  336.98577107],sad,0.9993661046028137,[240.64112518  54.66822729 399.34707158 284.28889554],happy,0.9935621023178101,,,
[ 882.87726479  441.07896033 1048.72369185  690.22335798],fearful,0.9996341466903687,[ 872.00357159   96.5265986  1035.76928335  337.26248195],sad,0.9993661046028137,[240.12897068  54.56362559 399.10388175 282.88736013],happy,0.9935621023178101,,,
[ 883.89030183  437.12515386 1048.55549418  683.00546386],fearful,0.9996341466903687,[ 872.27687925  102.16848517 1035.50283954  339.87796549],sad,0.9993661046028137,[238.62124686  57.93078098 397.36710941 286.79921589],happy,0.9935621023178101,,,
[ 884.47857106  436.21105834 1048.27467104  679.71745271],fearful,0.9996341466903687,[ 872.45861505  104.78971001 1035.30397692  340.33769721],sad,0.9993661046028137,[238.09058804  59.11974125 396.67051924 288.38954642],happy,0.9935621023178101,[234.1761328  448.9323286  402.28164808 700.40117004],angry,0.9997789263725281
[ 884.8372023   436.29811235 1047.98247107  678.10075185],fearful,0.9996341466903687,[ 872.60703773  106.12141555 1035.18345709  340.11368287],sad,0.9993661046028137,[237.90543344  59.50675743 396.35960407 289.07634845],happy,0.9935621023178101,[234.0088211  448.93883026 402.40489847 700.31808799],angry,0.9997789263725281
[ 884.78023874  437.5162441  1047.38148765  677.51965542],fearful,0.9996341466903687,[ 872.7540674   107.48058614 1035.21089505  340.30974003],sad,0.9993661046028137,[237.62105264  60.77931713 395.84328565 291.40319892],happy,0.9935621023178101,[233.68282377 448.9406286  402.74410388 700.92809937],angry,0.9997789263725281
[ 884.41936398  438.42128154 1046.41201353  676.96571579],fearful,0.9996341466903687,[ 872.90074095  108.20202124 1035.22124772  340.90120433],sad,0.9993661046028137,[237.41201738  61.92222965 395.52768347 294.01281982],happy,0.9935621023178101,[233.43612112 448.61245232 402.95680898 701.84211365],angry,0.9997789263725281
[ 882.54754911  438.38964224 1044.1288336   676.48003802],fearful,0.9996341466903687,[ 873.17569725  109.274951   1034.97765599  340.69792514],sad,0.9993661046028137,[237.42739968  65.07738918 396.34582885 303.59191533],happy,0.9935621023178101,[242.48103605 441.00970664 410.55515583 696.37932327],angry,0.9997789263725281
[ 881.91144758  438.49131282 1043.19913075  676.25008752],fearful,0.9996341466903687,[ 873.36609875  109.87009226 1034.80087259  340.38324814],sad,0.9993661046028137,[237.36181749  65.10955228 396.76908757 308.37075112],happy,0.9935621023178101,[245.99654825 437.88404779 412.99744827 694.80801533],angry,0.9997789263725281
[ 881.7134482   438.6045749  1042.79282524  676.13512432],fearful,0.9996341466903687,[ 873.5124177   110.22350774 1034.67850322  340.09773322],sad,0.9993661046028137,[237.28664922  64.2552294  396.9813643  310.99624964],happy,0.9935621023178101,[247.40112394 436.45990764 413.63841202 694.54858889],angry,0.9997789263725281
[ 881.54602393  438.23360273 1042.40280742  675.49419194],fearful,0.9996341466903687,[ 873.6306468   110.20151552 1034.59984016  339.64747378],sad,0.9993661046028137,[237.81090105  62.07034768 397.41017499 310.80223967],happy,0.9935621023178101,[247.80589836 434.21984848 413.3540563  690.98635673],angry,0.9997789263725281
[ 881.34524839  437.78990218 1042.06110403  675.10993982],fearful,0.9996341466903687,[ 873.6265433   110.00297437 1034.53962474  339.34915844],sad,0.9993661046028137,[238.46768187  58.23787426 397.67428614 305.92675628],happy,0.9935621023178101,[247.29462702 434.06580507 412.51871509 688.69913946],angry,0.9997789263725281
[ 879.29847811  438.28055581 1040.03425481  676.43895455],fearful,0.9274918437004089,[ 873.26416542  110.39044002 1034.39224143  341.34095519],sad,0.7841227054595947,[238.09818478  57.50419928 396.93199062 304.26350088],fearful,0.7993943095207214,[242.31314978 436.44059258 409.24882699 693.67418682],angry,0.9997789263725281
[ 878.54496457  438.34061433 1039.28768985  677.08495301],fearful,0.9274918437004089,[ 873.0830949   110.22071682 1034.36752194  342.33539655],sad,0.7841227054595947,[238.01810064  57.41169506 396.57808458 303.47494881],fearful,0.7993943095207214,[240.16729632 436.96926312 408.24280899 695.92806189],angry,0.9997789263725281
[ 878.2750333   438.24586147 1039.0300979   677.45050958],fearful,0.9274918437004089,[ 872.98500682  109.95728391 1034.3909709   342.91058619],sad,0.7841227054595947,[238.0219369   57.45194847 396.38712968 303.02336952],fearful,0.7993943095207214,[239.16281929 436.9017711  408.04474566 697.04404533],angry,0.9997789263725281
[ 877.76187573  438.59341187 1038.5388939   678.65462217],fearful,0.9274918437004089,[ 872.81122341  109.07318526 1034.45508673  343.66139277],sad,0.7841227054595947,[237.96916201  58.61603374 396.55867686 304.68082869],fearful,0.7993943095207214,[238.32638302 436.90496151 408.18779012 700.03499379],angry,0.9997789263725281
[ 877.42619344  438.51552309 1038.11109375  679.58324721],fearful,0.9274918437004089,[ 872.84307561  107.71575348 1034.47226292  344.69639705],sad,0.7841227054595947,[237.68125803  60.29867301 396.74993248 306.25713479],fearful,0.7993943095207214,[237.51986557 436.38018142 408.37006105 702.76270352],angry,0.9997789263725281
[ 876.71589796  437.99693476 1037.32523535  678.21766698],fearful,0.9274918437004089,[ 873.20273253  107.77784628 1036.45624375  350.52183543],sad,0.7841227054595947,[238.44159309  68.04171606 397.80850127 315.10613352],fearful,0.7993943095207214,[237.65734746 442.07305948 408.36050149 708.0411032 ],angry,0.9997789263725281
[ 876.45831799  437.96228617 1037.01442997  677.55800107],fearful,0.9274918437004089,[ 873.08160336  106.75898346 1037.4483875   353.74133697],sad,0.7841227054595947,[238.68791352  70.76392116 398.26081214 318.62221677],fearful,0.7993943095207214,[237.73018748 444.28673176 408.31117473 709.91070861],surprised,0.5009299516677856
[ 876.39264025  438.0428046  1036.90862461  677.17454822],fearful,0.9274918437004089,[ 872.84099434  105.6285028  1037.98404671  355.68089111],sad,0.7841227054595947,[238.74702039  71.63954239 398.44300385 320.06035495],fearful,0.7993943095207214,[237.79024239 445.16555541 408.26186701 710.54503735],surprised,0.5009299516677856
[ 875.67304526  438.67197816 1036.67550022  677.04412308],fearful,0.9274918437004089,[ 872.98453667  103.97204781 1039.00846313  356.855086  ],sad,0.7841227054595947,[238.71986963  69.79431427 399.41485083 319.32346493],fearful,0.7993943095207214,[238.56184892 443.79317936 409.01915869 705.6780707 ],surprised,0.5009299516677856
[ 874.53330454  440.34196708 1036.07161939  677.81887882],fearful,0.9274918437004089,[ 873.21391559  101.52957158 1040.03593191  356.61693274],sad,0.7841227054595947,[238.76253985  66.19659191 400.01752761 315.57273918],fearful,0.7993943095207214,[239.0420564  444.59800982 409.06797772 702.98518412],surprised,0.5009299516677856
[ 872.94052498  441.04452073 1034.7247564   681.19192378],fearful,0.9274918437004089,[ 876.02818366   91.32411937 1042.97318564  345.81049875],sad,0.7841227054595947,[238.69263753  62.97830517 399.60914878 310.76858691],fearful,0.7993943095207214,[239.17580218 444.88682746 409.08006915 700.58313644],surprised,0.5009299516677856
[ 872.30730214  440.82264791 1034.26117655  682.95892093],fearful,0.9274918437004089,[ 877.06222825   87.52766706 1044.09880475  341.5820761 ],sad,0.7841227054595947,[238.70103457  62.01414266 399.37575634 308.63319074],fearful,0.7993943095207214,[239.24263811 445.44290528 409.06327519 699.21040249],surprised,0.5009299516677856
[ 872.05140823  440.43176425 1034.15896089  684.06112344],fearful,0.9274918437004089,[ 877.44869137   86.18463317 1044.53857033  339.89898488],sad,0.7841227054595947,[238.74394895  61.86156275 399.24311483 307.62020863],fearful,0.7993943095207214,[239.27643498 446.01895783 409.03122399 698.38195147],surprised,0.5009299516677856
[ 872.39071698  439.08428846 1034.28361011  685.568751  ],fearful,0.9274918437004089,[ 877.9411937    84.97984049 1044.77338605  338.38567194],sad,0.7841227054595947,[238.97072577  62.27784785 399.58263489 307.29893955],fearful,0.7993943095207214,[239.48648159 445.24592789 409.3212441  696.15196867],surprised,0.5009299516677856
[ 873.40074008  438.35259625 1035.18511943  687.94456228],fearful,0.9274918437004089,[ 878.47995915   84.06513053 1045.0170893   337.08505747],sad,0.7841227054595947,[239.4576264   62.83501109 400.40997397 307.52299734],fearful,0.7993943095207214,[239.73115779 444.40413403 409.7238441  693.55336381],surprised,0.5009299516677856
[ 877.91154617  436.97796297 1038.98991641  684.01734681],fearful,0.9985859394073486,[ 880.58020497   81.17773067 1046.79205772  333.11137721],sad,0.9965025186538696,[240.38627143  64.07757273 401.9725106  309.37616787],happy,0.968645453453064,[241.16709973 441.55819053 410.20683663 687.72532576],surprised,0.5009299516677856
[ 879.76625697  436.88911484 1040.30654928  682.06584005],fearful,0.9985859394073486,[ 881.41900197   80.30851008 1047.37971216  331.44916105],sad,0.9965025186538696,[240.63887924  64.43911964 402.67107205 310.17884352],happy,0.968645453453064,[241.87524602 440.984156   410.21017093 684.96327779],surprised,0.5009299516677856
[ 880.52918497  437.26187071 1040.67119756  681.02396889],fearful,0.9985859394073486,[ 881.76897652   80.14872346 1047.54117533  330.70999594],sad,0.9965025186538696,[240.65563765  64.49873987 403.00443838 310.56856675],happy,0.968645453453064,[242.25985967 441.1456477  410.08702737 683.55574673],surprised,0.5009299516677856
[ 880.85643713  438.31853582 1040.85585072  680.48919439],fearful,0.9985859394073486,[ 882.47099503   80.47340097 1048.06512274  329.84116709],sad,0.9965025186538696,[240.44851388  64.05892317 403.02537471 310.54265161],happy,0.968645453453064,[242.00744779 442.30483365 409.93002618 684.69065325],surprised,0.5009299516677856
[ 880.85569666  440.42214685 1040.83118645  680.87525036],fearful,0.9985859394073486,[ 883.07311472   81.39232937 1048.33758292  329.59326725],sad,0.9965025186538696,[240.35141581  63.84426808 402.96824323 310.1702036 ],happy,0.968645453453064,[241.08074323 446.37945022 410.12953353 691.73779252],surprised,0.5009299516677856
[ 880.6913651   447.2123124  1040.17022429  684.61777541],fearful,0.9985859394073486,[ 884.16995066   83.02509079 1049.20308033  330.54855855],sad,0.9965025186538696,[240.14648741  61.92343587 402.37018881 307.37059674],happy,0.968645453453064,[238.1179319  458.49875173 407.4694934  707.71101626],surprised,0.5009299516677856
[ 880.72838696  450.29220785 1039.82622567  685.49717659],fearful,0.9985859394073486,[ 884.6245948    83.72858868 1049.48116304  330.79449471],sad,0.9965025186538696,[240.12655512  61.35367458 402.06145766 306.15413181],happy,0.968645453453064,[236.95727278 462.36118761 406.49207533 714.40788954],,
[ 880.81493619  451.8274618  1039.61681182  685.41515564],fearful,0.9985859394073486,[ 884.82280835   84.08661386 1049.55722363  330.81034159],sad,0.9965025186538696,[240.16237511  61.25347921 401.88779037 305.59373341],happy,0.968645453453064,[236.51318267 463.30210053 406.15690265 717.42573305],,
[ 880.67563924  452.90693729 1039.3126102   685.45949258],fearful,0.9985859394073486,[ 885.47433624   85.04502337 1049.89319949  331.18962832],sad,0.9965025186538696,[239.94752604  60.47265959 401.60977714 303.91188183],happy,0.968645453453064,[236.38416367 462.74520145 405.7567455  716.23448426],,
[ 880.37520368  453.54759156 1038.88953188  685.25062897],fearful,0.9985859394073486,[ 886.14296202   87.41325963 1050.09382212  332.33256233],sad,0.9965025186538696,[239.75251091  60.35061585 401.20362683 303.03069348],happy,0.968645453453064,[236.28858571 461.74108824 405.45006923 712.86504162],,
[ 880.82731013  452.09949547 1039.5202634   683.19144165],fearful,0.9985859394073486,[ 889.2969012    93.05206125 1053.10642116  333.91509002],sad,0.9965025186538696,[239.33479387  65.0059799  400.68167502 307.02854266],happy,0.968645453453064,,,
[ 880.95593452  451.62174978 1039.7886731   682.28374568],fearful,0.9985859394073486,[ 890.50841661   95.88522419 1054.19619384  333.83261836],sad,0.9965025186538696,[239.18675774  66.88964645 400.45865706 308.43010159],happy,0.968645453453064,,,
[ 880.99101024  451.46213509 1039.92026482  681.83805219],fearful,0.9985859394073486,[ 890.96828766   97.4841536  1054.54957007  333.30212865],sad,0.9965025186538696,[239.13863208  67.68181334 400.35764225 308.87787829],happy,0.968645453453064,,,
[ 881.11913196  449.84896978 1040.220014    680.66070706],fearful,0.9985859394073486,[ 891.85103456   98.17805502 1055.48955449  333.05089395],sad,0.9965025186538696,[239.10680696  69.20756939 400.33421989 309.87527384],happy,0.968645453453064,,,
[ 881.34216684  448.50568505 1040.70525955  679.84079225],fearful,0.9985859394073486,[ 892.62507307   98.67995353 1056.41275746  333.43530758],sad,0.9965025186538696,[239.10533959  70.07499144 400.2690964  310.38278007],happy,0.968645453453064,,,
[ 880.86628637  445.06261669 1040.34403335  675.48595592],fearful,0.9999809265136719,[ 899.36462409   96.6710892  1062.20109174  335.70974869],fearful,0.7593951225280762,[239.12654079  71.36432901 400.18087979 311.43919706],happy,0.9995587468147278,,,
[ 880.66688065  443.94287535 1040.22650223  673.71317983],fearful,0.9999809265136719,[ 902.08095473   95.1423886  1064.16690723  337.37411449],fearful,0.7593951225280762,[239.15416817  71.88865114 400.13188323 311.77850934],happy,0.9995587468147278,,,
[ 880.57194501  443.65457944 1040.17747839  672.96634221],fearful,0.9999809265136719,[ 903.16424072   93.9084198  1064.68103239  338.54911304],fearful,0.7593951225280762,[239.18763137  72.14133827 400.09914577 311.90767772],happy,0.9995587468147278,,,
[ 881.38745869  439.91814148 1041.32632071  668.04859745],fearful,0.9999809265136719,[ 907.70195627   90.06628775 1069.12558506  337.75986794],fearful,0.7593951225280762,[239.1556852   72.13793336 400.06007104 311.55212544],happy,0.9995587468147278,,,
[ 882.37713928  436.35131621 1042.69056412  663.11585737],fearful,0.9999809265136719,[ 911.1147404    84.68408615 1071.97245258  336.49281355],fearful,0.7593951225280762,[239.0334201   71.62296589 399.85182847 310.63646947],happy,0.9995587468147278,,,
[ 883.58645689  430.89738316 1044.11952284  658.57729651],fearful,0.9999809265136719,[ 908.6954215    72.57425863 1069.28233318  324.33140429],fearful,0.7593951225280762,[238.89186139  70.93679751 399.53420551 309.28343705],happy,0.9995587468147278,,,
[ 884.00691718  428.72332983 1044.6950651   657.08920986],fearful,0.9999809265136719,[ 907.76897177   67.97991406 1068.15553214  319.71902694],fearful,0.7593951225280762,[238.87101255  70.80144162 399.39033521 308.6635052 ],happy,0.9995587468147278,,,
[ 884.13062514  427.84952244 1044.9347173   656.72418327],fearful,0.9999809265136719,[ 907.39587865   66.25260812 1067.66275036  317.9954286 ],fearful,0.7593951225280762,[238.87840491  70.84528656 399.31185413 308.36535172],happy,0.9995587468147278,,,
[ 882.35849668  427.4829217  1043.1399089   656.15852324],fearful,0.9999809265136719,[ 904.77408774   63.77022017 1065.20134658  315.80040846],fearful,0.7593951225280762,[238.89894834  71.03372033 399.25643116 308.29319695],happy,0.9995587468147278,,,
[ 880.72856977  428.34939628 1041.71764231  656.85213505],fearful,0.9999809265136719,[ 902.16679671   62.87498365 1062.80851711  314.99457482],fearful,0.7593951225280762,[239.03956274  71.47414471 399.3846769  308.43686342],happy,0.9995587468147278,,,
[ 878.40903588  430.12379843 1039.15893526  659.2095306 ],fearful,0.9999809265136719,[ 900.23370157   71.26733469 1060.67811824  320.45100554],fearful,0.7593951225280762,[239.67056434  71.9101024  400.00794959 308.8202888 ],happy,0.9995587468147278,,,
[ 877.58170453  430.73924255 1038.15309677  660.2570871 ],fearful,0.9999809265136719,[ 899.53009823   75.03970229 1059.82442173  322.08162772],fearful,0.7593951225280762,[239.91273672  72.04147782 400.24437759 308.93563291],happy,0.9995587468147278,,,
[ 877.30975909  430.95114528 1037.7539354   660.76683388],fearful,0.9999809265136719,[ 899.33423368   76.82700674 1059.48319357  322.32325388],fearful,0.7593951225280762,[240.01085803  72.08854814 400.3458718  308.96109616],happy,0.9995587468147278,,,
[ 877.03122086  431.58807009 1037.50483148  660.9128412 ],fearful,0.9999809265136719,[ 898.67410613   78.62575985 1059.04705043  323.01184159],fearful,0.7593951225280762,[240.15803713  72.34606494 400.55357505 309.16222422],happy,0.9995587468147278,,,
[ 876.82795621  432.15901928 1037.38842145  661.08177532],fearful,0.9999809265136719,[ 898.18580457   81.12669853 1058.41708848  323.84890962],fearful,0.7593951225280762,[240.3190629   72.50349254 400.74789628 309.20616154],happy,0.9995587468147278,,,
[ 876.74473569  432.46110537 1037.36900489  661.09220387],,,[ 898.02787142   82.37033833 1058.15192608  323.88479682],,,[240.3723195   72.57876721 400.82532179 309.19851032],,,,,
