person_1,person_1_emo,person_1_score,person_2,person_2_emo,person_2_score,person_3,person_3_emo,person_3_score,person_4,person_4_emo,person_4_score,person_5,person_5_emo,person_5_score,person_6,person_6_emo,person_6_score
[ 892.11578463  408.45517099 1030.63500883  602.88104117],sad,0.9996978044509888,[283.56747346 412.67364374 405.02731414 583.55841192],neutral,0.999158501625061,[627.82971274 147.23816037 749.91668618 323.1543262 ],surprised,0.6167371869087219,[299.19799836 115.52864119 433.80767791 303.30133012],happy,0.9883671402931213,[ 916.41900665  133.10510296 1046.50036591  315.07476765],sad,0.5305413603782654,[622.21002244 425.54110781 754.00701858 603.3837274 ],sad,0.8151499629020691
[ 892.13496168  408.48554969 1030.62358247  602.92829143],sad,0.9996978044509888,[283.58176568 412.67008842 405.03648759 583.55174487],neutral,0.999158501625061,[627.83449465 147.17290971 749.93149461 323.15763236],surprised,0.6167371869087219,[299.19892999 115.54688471 433.81379514 303.28809099],happy,0.9883671402931213,[ 916.39541112  133.15930961 1046.48459769  315.12251004],sad,0.5305413603782654,[622.1821026  425.56017683 754.01723999 603.39105344],sad,0.8151499629020691
[ 892.1783439   408.56912214 1030.62477311  602.93347282],sad,0.9996978044509888,[283.56725015 412.51212988 405.07053682 583.419156  ],neutral,0.999158501625061,[628.37782106 147.41854779 750.65273173 323.57796491],surprised,0.6167371869087219,[297.86414184 114.45390156 432.45967067 300.60144949],happy,0.9883671402931213,[ 916.1458939   132.9828214  1046.22296368  314.81660253],sad,0.5305413603782654,[622.08034925 425.42953913 753.93390266 603.37656347],sad,0.8151499629020691
[ 892.23463946  408.47260798 1030.66744198  602.89642942],sad,0.9996978044509888,[283.49976612 412.48499629 404.96104235 583.50626011],neutral,0.999158501625061,[628.79605524 147.4083499  751.25510015 323.74334455],surprised,0.6167371869087219,[293.79776368 112.63820955 429.22093264 297.78880875],happy,0.9883671402931213,[ 915.97167771  132.5913498  1046.00282301  314.14138597],sad,0.5305413603782654,[621.85073752 425.36145029 753.76426766 603.51528621],sad,0.8151499629020691
[ 892.3119451   408.33116195 1030.74840724  602.88762435],sad,0.9996978044509888,[283.36714396 412.3043409  404.82812774 583.39618545],neutral,0.999158501625061,[628.99437907 147.30654689 751.56436488 323.87355331],surprised,0.6167371869087219,[291.23637038 109.16215936 427.83456364 294.64347806],happy,0.9883671402931213,[ 915.89198491  132.23494351 1045.80809821  313.38566273],sad,0.5305413603782654,[621.59547419 425.13665072 753.60533024 603.45064342],sad,0.8151499629020691
[ 892.45089425  408.1664622  1030.87940101  602.73618137],sad,0.9996978044509888,[283.10525866 411.9880753  404.60623475 583.40964775],neutral,0.999158501625061,[628.8403965  147.19423125 751.40656779 323.99944577],surprised,0.6167371869087219,[286.18882033 105.00527823 423.83659217 291.60762989],happy,0.9883671402931213,[ 915.98136339  131.64266172 1045.80507783  312.1951281 ],sad,0.5305413603782654,[621.25406023 425.15536241 753.36892634 603.59088167],sad,0.8151499629020691
[ 892.5839843   408.10469361 1031.03855163  602.84090417],sad,0.9996978044509888,[282.92628026 411.66950188 404.40969448 583.33048623],neutral,0.999158501625061,[628.41028758 147.24222998 750.93671653 324.2443853 ],surprised,0.6167371869087219,[283.33860947 103.99410515 421.79263305 290.82052271],happy,0.9883671402931213,[ 916.10884217  131.48188672 1045.98845387  311.47132021],sad,0.5305413603782654,[621.04696339 425.1868687  753.17376402 603.60822084],sad,0.8151499629020691
[ 892.70617453  408.21162708 1031.0717078   602.92316949],sad,0.9996978044509888,[282.76567447 411.48054397 404.20658618 583.27029611],neutral,0.999158501625061,[627.61827662 147.47922982 749.97576315 324.29895005],surprised,0.6167371869087219,[281.3965776  103.0225229  420.68263473 290.25918711],happy,0.9883671402931213,[ 916.14158315  134.33735834 1045.94120279  313.54124122],sad,0.5305413603782654,[620.80946303 425.08930412 753.11029422 603.69801832],sad,0.8151499629020691
[ 892.8425856   408.09840962 1031.23795879  603.06422344],sad,0.9996978044509888,[282.58291518 411.46628977 404.04671638 583.39643116],neutral,0.999158501625061,[626.56532704 147.22698825 748.68261567 323.81682358],surprised,0.6167371869087219,[279.95167307 102.20897684 419.80206868 289.64228713],happy,0.9883671402931213,[ 916.32085093  135.01920332 1046.01369174  313.70614467],sad,0.5305413603782654,[620.60517993 425.14329119 753.07619571 603.8579305 ],sad,0.8151499629020691
[ 892.93762479  408.08601287 1031.37301741  603.18330577],sad,0.9996978044509888,[282.42591548 411.41988214 403.90064921 583.54706451],neutral,0.999158501625061,[625.3923364  147.22010155 747.4013204  323.25752777],surprised,0.6167371869087219,[279.21586365 102.05389365 419.23839911 289.35162919],happy,0.9883671402931213,[ 916.60399821  135.18120516 1046.12234405  313.23849347],sad,0.5305413603782654,[620.35985695 425.23206089 752.91819107 603.96189869],sad,0.8151499629020691
[ 893.04933442  408.05435545 1031.54065725  603.22949621],sad,0.9996978044509888,[282.14844235 411.34108314 403.6472293  583.70658122],neutral,0.999158501625061,[622.85851225 147.14405111 744.92527925 322.36090356],surprised,0.6167371869087219,[279.23147606 101.06934873 419.22342217 288.9742749 ],happy,0.9883671402931213,[ 916.95067573  134.77475855 1046.38856506  312.41946218],sad,0.5305413603782654,[620.00415693 425.22675391 752.60739757 604.0292729 ],sad,0.8151499629020691
[ 893.1399811   408.09171962 1031.67726082  603.30835121],sad,0.9996978044509888,[282.02295811 411.41686557 403.53277374 583.89741043],neutral,0.999158501625061,[620.91255223 147.05643314 743.02173742 321.73194121],surprised,0.6167371869087219,[279.65310584 100.28622153 419.56683498 288.85594216],happy,0.9883671402931213,[ 917.1783982   134.35233053 1046.59239011  311.83553382],sad,0.5305413603782654,[620.55302173 423.96535191 752.0591462  601.73602854],sad,0.8151499629020691
[ 893.14845163  408.31052756 1031.72337989  603.39537551],sad,0.9996978044509888,[281.94958731 411.36204623 403.46189895 584.03652749],neutral,0.999158501625061,[619.37746342 147.17646722 741.37775576 321.32927431],surprised,0.6167371869087219,[280.45505981 100.44840122 420.33368082 289.60983283],happy,0.9883671402931213,[ 917.26570312  134.03709208 1046.69084711  311.42069752],sad,0.5305413603782654,[620.10505961 425.21095056 751.94300673 603.48839667],sad,0.8151499629020691
[ 893.20219063  408.35579519 1031.940504    603.53343871],sad,0.9996978044509888,[281.87270875 411.33113115 403.40576177 584.15245187],neutral,0.999158501625061,[618.33188247 147.9200665  740.36294789 321.40527159],surprised,0.6167371869087219,[281.40751943 101.42428255 421.27813261 291.01624525],happy,0.9883671402931213,[ 917.39613659  133.81899279 1046.85390434  311.26376126],sad,0.5305413603782654,[619.91354048 425.69788557 751.84916097 604.5117239 ],sad,0.8151499629020691
[ 893.30194357  408.34006638 1032.16328828  603.57773621],sad,0.9996978044509888,[281.77201936 411.34632456 403.30940605 584.17327278],neutral,0.999158501625061,[617.41574596 148.44414768 739.31576284 321.32145986],surprised,0.6167371869087219,[282.77394    102.03267818 422.21931075 292.27415484],happy,0.9883671402931213,[ 917.4848726   133.67821165 1046.95022618  311.15179798],sad,0.5305413603782654,[619.7688823  425.74673085 751.79121459 605.05768218],sad,0.8151499629020691
[ 893.39037669  408.5996088  1032.42340938  603.90807762],sad,0.868023693561554,[281.85426451 411.67919493 403.0525826  583.97326336],neutral,0.889840841293335,[616.68968184 148.77617589 738.33590658 321.96390598],fearful,0.9774485230445862,[284.16164031 102.58011572 423.59346087 293.63732867],happy,0.9994706511497498,[ 917.57412098  133.54917239 1047.03233133  311.09454035],angry,0.9777811169624329,[620.21316942 424.11414146 751.15024057 602.81501848],disgust,0.9987071752548218
[ 893.4097602   408.95953938 1032.5594656   604.26197096],sad,0.868023693561554,[281.92182511 412.14241335 402.9196049  583.93750496],neutral,0.889840841293335,[616.65804364 148.65084072 738.08324157 322.49507844],fearful,0.9774485230445862,[284.84508036 103.19431743 424.47410814 295.05210501],happy,0.9994706511497498,[ 917.60469694  133.5624058  1047.01417535  311.03112822],angry,0.9777811169624329,[620.37909946 423.09922126 750.64269607 601.63811103],disgust,0.9987071752548218
[ 893.31622568  409.24067419 1032.7027046   604.61227167],sad,0.868023693561554,[281.89519284 412.35049044 402.80770025 583.98307795],neutral,0.889840841293335,[617.08722498 148.37685744 738.08704892 322.32550918],fearful,0.9774485230445862,[285.39110949 103.98525912 425.36694294 296.52197942],happy,0.9994706511497498,[ 917.63232765  133.58839054 1046.9498146   310.95041898],angry,0.9777811169624329,[620.55811716 422.56489977 750.30787338 601.047217  ],disgust,0.9987071752548218
[ 893.33498941  409.50428592 1032.87716272  605.03546861],sad,0.868023693561554,[282.00693903 412.27580679 402.89306808 584.45319663],neutral,0.889840841293335,[617.71106626 148.01410288 738.36417807 321.90930986],fearful,0.9774485230445862,[285.85131076 105.00177341 426.10731428 297.97135915],happy,0.9994706511497498,[ 917.65100692  133.59957262 1046.92305754  310.93328007],angry,0.9777811169624329,[620.39728156 422.14044865 749.90169774 600.9366793 ],disgust,0.9987071752548218
[ 893.36857316  409.6628696  1033.03994002  605.42495675],sad,0.868023693561554,[282.03997777 412.19355956 402.78211242 585.32407334],neutral,0.889840841293335,[618.36591869 147.74221219 738.82754915 321.18141695],fearful,0.9774485230445862,[286.12686332 105.9426314  426.62976426 299.41887683],happy,0.9994706511497498,[ 917.54710274  133.54124218 1046.82328908  310.93301219],angry,0.9777811169624329,[620.31598456 421.87901625 749.60639717 601.09290754],disgust,0.9987071752548218
[ 893.53181758  409.8332829  1033.44890231  606.34741097],sad,0.868023693561554,[281.91889075 411.86198275 402.66789206 586.25066532],neutral,0.889840841293335,[619.0567713  147.34569949 739.36808787 319.8910653 ],fearful,0.9774485230445862,[286.27516151 106.75565895 427.25690247 299.48554378],happy,0.9994706511497498,[ 917.33777954  133.80511989 1046.70313979  311.76468944],angry,0.9777811169624329,[619.75989336 421.70669047 749.55500168 602.3059718 ],disgust,0.9987071752548218
[ 893.64783482  409.98662973 1033.60137733  607.5419506 ],sad,0.868023693561554,[281.85640638 410.88564036 402.6940878  586.08116764],neutral,0.889840841293335,[619.81502115 147.6249297  740.06546034 319.35385598],fearful,0.9774485230445862,[286.48934377 107.36520326 427.82815931 299.48709984],happy,0.9994706511497498,[ 916.70590571  133.648594   1046.18614375  312.69702688],angry,0.9777811169624329,[619.69660529 421.28359466 749.54332629 602.40736169],disgust,0.9987071752548218
[ 893.599166    410.71103172 1033.42798765  608.80620643],sad,0.868023693561554,[281.82792842 409.81113395 402.86625568 585.37418217],neutral,0.889840841293335,[620.49148941 148.06993444 740.90192205 319.33218609],fearful,0.9774485230445862,[286.85522526 107.7701222  428.53847024 299.79682126],happy,0.9994706511497498,[ 913.36317084  130.82858747 1042.22939868  310.79072514],angry,0.9777811169624329,[619.83838525 420.28805886 749.6601744  601.34674529],disgust,0.9987071752548218
[ 893.43920211  411.28864621 1033.07917266  609.85528762],sad,0.868023693561554,[281.78534977 408.81344685 402.97779421 584.5273967 ],neutral,0.889840841293335,[621.14510332 148.72930866 741.87271791 320.17693052],fearful,0.9774485230445862,[287.27586666 107.73702014 429.18171238 299.89508993],happy,0.9994706511497498,[ 910.23191218  128.85182838 1038.73466164  309.94559279],angry,0.9777811169624329,[620.37303103 419.60559063 749.91161592 600.02737925],disgust,0.9987071752548218
[ 893.33527635  411.32441018 1032.94681273  610.2680021 ],sad,0.868023693561554,[281.72426883 408.11931823 403.14660448 583.87937808],neutral,0.889840841293335,[621.52519962 149.25271198 742.44596666 321.35368429],fearful,0.9774485230445862,[287.64937465 107.57793808 429.86681887 299.91487903],happy,0.9994706511497498,[ 908.22153721  126.2457841  1036.5996126   308.22802088],angry,0.9777811169624329,[621.16161577 418.98504357 750.25362079 598.23306154],disgust,0.9987071752548218
[ 893.74283922  410.974404   1033.55576166  610.70575057],sad,0.868023693561554,[281.8113119  407.61292578 403.39846456 583.24698875],neutral,0.889840841293335,[622.29396477 150.28052716 743.36718369 323.5540639 ],fearful,0.9774485230445862,[288.57407244 105.97291031 431.22083685 298.83581794],happy,0.9994706511497498,[ 911.87825293  124.20248367 1039.99045978  306.33496135],angry,0.9777811169624329,[621.83104518 419.26006763 750.65132331 598.67681001],disgust,0.9987071752548218
[ 893.96294853  410.5349046  1033.83308215  611.25954634],sad,0.868023693561554,[281.84292573 407.32252031 403.51599661 582.76543249],neutral,0.889840841293335,[623.37899552 150.79161844 744.34517725 325.13325814],fearful,0.9774485230445862,[289.24091982 104.65178999 432.42981726 298.40749536],happy,0.9994706511497498,[ 915.70569336  121.89870185 1044.66440153  305.32352677],angry,0.9777811169624329,[622.26603746 419.85501199 750.85709189 599.82938301],disgust,0.9987071752548218
[ 893.73287178  410.10969106 1033.46079156  611.59572729],sad,0.868023693561554,[282.1858852  407.43794257 403.40683828 582.38876023],neutral,0.889840841293335,[624.79815364 151.06466784 745.22517156 326.66207481],fearful,0.9774485230445862,[289.57099388 103.51943103 433.13115683 297.94915882],happy,0.9994706511497498,[ 921.82824141  123.27783913 1051.06122069  308.04500278],angry,0.9777811169624329,[622.66800788 420.51180846 751.01850262 600.89054491],disgust,0.9987071752548218
[ 892.87949321  409.09808518 1032.29839227  610.86866366],sad,0.868023693561554,[282.52845509 407.01957257 403.48155952 581.41500462],neutral,0.889840841293335,[626.02771264 150.95537475 745.9467079  327.57858254],fearful,0.9774485230445862,[289.68512005 101.94300687 433.46883234 296.64447481],happy,0.9994706511497498,[ 926.13760801  126.27562031 1054.95067461  310.59357549],angry,0.9777811169624329,[623.11928252 421.33268016 751.19646172 601.82288801],disgust,0.9987071752548218
[ 891.22189711  407.60434515 1030.59899913  608.9980242 ],sad,0.868023693561554,[282.78981482 406.29905234 403.5666177  580.02578939],neutral,0.889840841293335,[626.64919918 150.45064238 746.16022609 327.38100547],fearful,0.9774485230445862,[289.67415634 100.27626179 433.70546763 294.87901055],happy,0.9994706511497498,[ 929.22030819  128.72444085 1057.34470722  312.52137215],angry,0.9777811169624329,[623.4908113  422.16979915 751.19485907 602.52969534],disgust,0.9987071752548218
[ 889.28982302  404.48489863 1027.81975186  604.93313173],fearful,0.9371420741081238,[283.25687032 405.96361968 403.66285915 579.16267372],neutral,0.6394261121749878,[625.38591862 151.06200708 744.89132666 327.59430957],fearful,0.9986691474914551,[289.34345111  99.42269201 433.6097156  293.75734838],happy,0.998971700668335,[ 929.58448529  128.95157004 1057.5885663   311.47635249],angry,0.9975735545158386,[623.75401065 422.6535629  751.00139911 602.00779501],disgust,0.9995424747467041
[ 888.46770674  403.24576975 1026.29111712  602.76275543],fearful,0.9371420741081238,[283.66963672 407.06671426 403.755352   579.85143387],neutral,0.6394261121749878,[624.52698318 151.75237309 744.18433791 328.01284115],fearful,0.9986691474914551,[288.67057862  99.44593042 433.06922239 293.55194289],happy,0.998971700668335,[ 928.25025814  128.81658892 1056.49495751  310.4102935 ],angry,0.9975735545158386,[623.85897149 422.89400445 750.74662836 600.90194157],disgust,0.9995424747467041
[ 888.8059129   403.65126688 1026.48168181  602.12157242],fearful,0.9371420741081238,[283.97934977 407.75924361 403.84876868 580.14305005],neutral,0.6394261121749878,[624.08659725 152.23995502 743.94106001 328.35312498],fearful,0.9986691474914551,[287.94709025  99.93630432 432.52106701 294.32348124],happy,0.998971700668335,[ 925.57151352  129.4119995  1054.23170672  310.6675705 ],angry,0.9975735545158386,[623.92509523 422.58126778 750.51202225 598.9644976 ],disgust,0.9995424747467041
[ 890.01654715  404.69355805 1027.65358262  601.52268983],fearful,0.9371420741081238,[284.0789086  407.00698801 403.94910988 579.14871817],neutral,0.6394261121749878,[624.01460112 151.92209994 744.0672843  327.93305997],fearful,0.9986691474914551,[287.36483716 100.98733839 431.82351654 296.26359422],happy,0.998971700668335,[ 922.48256483  129.89659648 1051.2521234   311.2246652 ],angry,0.9975735545158386,[623.99554015 422.4399058  750.17682799 597.52394198],disgust,0.9995424747467041
[ 892.03905407  405.25389111 1029.25599643  600.55459905],fearful,0.9371420741081238,[284.48755823 407.54638704 404.19877614 579.54428369],neutral,0.6394261121749878,[624.44198157 151.07557639 744.51563042 327.87816392],fearful,0.9986691474914551,[286.7542043  101.14429194 431.1318407  297.13142525],happy,0.998971700668335,[ 920.76944186  129.72153682 1048.97184736  310.59106397],angry,0.9975735545158386,[623.75932472 422.26863088 749.77107534 596.62899706],disgust,0.9995424747467041
[ 893.98817928  405.41728767 1030.8273097   600.00640832],fearful,0.9371420741081238,[284.42363024 407.33890448 404.30085795 579.88615838],neutral,0.6394261121749878,[624.76860476 151.69166207 744.93511461 330.40094075],fearful,0.9986691474914551,[286.4787271  100.96066694 430.56282997 298.1221002 ],happy,0.998971700668335,[ 923.31260097  127.47179286 1051.96189745  309.28937368],angry,0.9975735545158386,[622.65976547 422.15150387 748.80968598 595.4987208 ],disgust,0.9995424747467041
[ 894.30717079  405.68373307 1030.95900962  600.11592518],fearful,0.9371420741081238,[284.50257666 407.50896775 404.69209922 581.72797355],neutral,0.6394261121749878,[624.74401172 151.75123426 745.11094697 332.74044823],fearful,0.9986691474914551,[285.87763018 100.83946678 429.70603949 298.87415599],happy,0.998971700668335,[ 925.43913238  126.05120994 1054.91604914  308.09333828],angry,0.9975735545158386,[621.16454083 422.43999113 747.68885162 595.25562025],disgust,0.9995424747467041
[ 894.1678938   405.6397695  1030.7284263   599.95694502],fearful,0.9371420741081238,[284.41743352 407.67748383 404.84379807 583.46731054],neutral,0.6394261121749878,[624.30811396 151.62717048 744.9320795  334.41285791],fearful,0.9986691474914551,[285.04495631 100.74715874 428.74587405 299.34019012],happy,0.998971700668335,[ 926.79798468  124.99707894 1057.0610231   306.86922216],angry,0.9975735545158386,[619.62135214 422.77594662 746.52656058 595.44107757],disgust,0.9995424747467041
[ 894.31853811  405.64764301 1030.79672139  599.77240041],fearful,0.9371420741081238,[284.30851618 407.18115678 404.93730179 584.04638031],neutral,0.6394261121749878,[623.54860795 151.0278748  744.57671653 334.94210203],fearful,0.9986691474914551,[283.97702742 101.02512637 427.60505947 300.32055237],happy,0.998971700668335,[ 927.43973543  124.5679321  1058.44688196  305.90218147],angry,0.9975735545158386,[618.27087619 422.69364704 745.29300637 595.60477596],disgust,0.9995424747467041
[ 894.85342966  405.98946095 1031.3304326   599.86003895],fearful,0.9371420741081238,[284.30360277 406.21811236 404.99833868 583.21474131],neutral,0.6394261121749878,[622.7792875  149.68247872 744.17323728 333.37861987],fearful,0.9986691474914551,[282.2184996  102.37087667 426.13951323 302.24381284],happy,0.998971700668335,[ 927.76016247  125.09935408 1059.17260533  305.76049764],angry,0.9975735545158386,[617.27512994 422.51488585 744.24310908 596.36752369],disgust,0.9995424747467041
[ 896.24261723  406.68133542 1033.14640875  601.83467269],fearful,0.9371420741081238,[283.95743623 405.78512162 404.44624606 582.24964265],neutral,0.6394261121749878,[621.55029748 148.72426617 743.48377488 331.31393845],fearful,0.9986691474914551,[281.60563208 106.05212931 425.3194089  309.0968614 ],happy,0.998971700668335,[ 927.45937494  127.51565744 1059.1683204   308.33051415],angry,0.9975735545158386,[616.75455285 421.8226069  743.06007758 598.05514155],disgust,0.9995424747467041
[ 897.45638423  408.20089134 1034.82748589  604.5816455 ],fearful,0.9371420741081238,[283.77273137 405.66791844 404.15273175 581.72752281],neutral,0.6394261121749878,[620.72748347 148.16289374 743.07442638 329.89910376],fearful,0.9986691474914551,[281.21547859 107.41170326 424.91594419 313.35888502],happy,0.998971700668335,[ 926.24602077  131.13913632 1058.06033023  313.22836948],angry,0.9975735545158386,[615.48905786 421.22619761 740.80168143 599.33150352],disgust,0.9995424747467041
[ 898.46999904  409.10283727 1036.34409768  606.57347573],fearful,0.9371420741081238,[283.88160193 406.75261251 404.24323887 582.40740241],neutral,0.6394261121749878,[620.17463458 147.99586352 742.76506816 329.00222598],fearful,0.9986691474914551,[279.8648964  107.50524954 424.16781053 314.40835214],happy,0.998971700668335,[ 925.63270974  137.94246844 1057.661342    322.34165002],angry,0.9975735545158386,[615.48759073 420.6029705  739.95760876 600.42447534],disgust,0.9995424747467041
[ 899.16959432  408.73822323 1037.43581015  606.38629326],fearful,0.9371420741081238,[283.7160604  406.18829728 404.05594715 581.4429446 ],neutral,0.6394261121749878,[619.51994881 148.0316003  742.27422421 328.15609354],fearful,0.9986691474914551,[278.75012419 107.11341866 423.34757048 314.16759349],happy,0.998971700668335,[ 924.49624114  149.17824615 1056.96643082  337.99988334],angry,0.9975735545158386,[616.84584495 420.24195273 741.04335004 601.93315809],disgust,0.9995424747467041
[ 899.67576433  407.58383393 1038.21881753  604.76681331],fearful,0.9371420741081238,[283.791192   406.09166224 404.03476682 581.11617201],neutral,0.6394261121749878,[618.52117604 148.19382321 741.14378525 326.99073031],fearful,0.9986691474914551,[277.95593333 106.26960109 422.71630805 313.11374887],happy,0.998971700668335,[ 924.54913135  164.20619808 1056.65910193  354.05950801],angry,0.9975735545158386,[618.06219219 419.760602   741.87995341 602.25677663],disgust,0.9995424747467041
[ 900.21435759  407.07267379 1038.8611043   603.27013457],fearful,0.9980314373970032,[284.01320889 406.36487878 404.65094853 582.25774735],neutral,0.8189280033111572,[617.02052243 148.15729618 739.65050692 326.38726571],fearful,0.9978206157684326,[277.19972765 105.37933007 422.15923962 311.62338802],calm,0.6468788385391235,[ 925.51383816  174.43114893 1057.3535288   365.29848986],surprised,0.49693506956100464,[620.08461313 418.22907928 743.67464246 599.59801326],disgust,0.8422216176986694
[ 900.31853691  406.08129468 1038.90047362  601.31341464],fearful,0.9980314373970032,[283.99198993 406.62725781 404.80136604 582.95559428],neutral,0.8189280033111572,[615.21712692 148.50701408 737.98775278 326.95201092],fearful,0.9978206157684326,[276.99797281 105.51253507 421.97567979 311.30022905],calm,0.6468788385391235,[ 926.7257872   174.26057119 1058.59184094  365.8696266 ],surprised,0.49693506956100464,[621.19873028 418.15653484 744.68017329 598.80707781],disgust,0.8422216176986694
[ 900.30805439  405.87323814 1038.93889274  600.13036537],fearful,0.9980314373970032,[284.02138088 406.77117454 404.56759145 582.73884963],neutral,0.8189280033111572,[614.32593983 149.17043903 737.15999723 328.26596413],fearful,0.9978206157684326,[276.90511911 105.97069991 421.94358691 311.5150124 ],calm,0.6468788385391235,[ 927.3944078   169.82159219 1059.91210102  361.82102195],surprised,0.49693506956100464,[621.92391592 418.90364183 745.25916942 598.94289641],disgust,0.8422216176986694
[ 900.25589503  406.02030512 1038.9650758   599.71844918],fearful,0.9980314373970032,[284.12245147 406.74734967 404.52905889 582.14355652],neutral,0.8189280033111572,[614.13476872 149.69609254 736.97802186 329.69397934],fearful,0.9978206157684326,[276.87293945 106.10732317 422.15778576 311.37165099],calm,0.6468788385391235,[ 928.05605988  166.0952246  1060.8852763   357.66345036],surprised,0.49693506956100464,[622.81197576 420.09356732 746.21600469 599.31437599],disgust,0.8422216176986694
[ 900.7247139   406.80153949 1039.26349034  600.04161444],fearful,0.9980314373970032,[284.38928864 407.48291661 404.71069862 582.66872388],neutral,0.8189280033111572,[614.28891449 150.31652626 737.08941309 331.05863834],fearful,0.9978206157684326,[276.63691687 105.23764145 422.12497652 309.66431309],calm,0.6468788385391235,[ 928.75376668  163.45514553 1061.69549006  354.46570246],surprised,0.49693506956100464,[623.94301765 421.06178779 747.49190197 599.24670622],disgust,0.8422216176986694
[ 901.50922741  407.0134164  1040.00878565  599.95249673],fearful,0.9980314373970032,[284.71469347 407.66883654 404.7090698  582.42654575],neutral,0.8189280033111572,[615.07787401 149.90531094 737.73789267 330.69608967],fearful,0.9978206157684326,[276.46034226 105.76589354 422.0323066  309.5163489 ],calm,0.6468788385391235,[ 929.40012737  160.22511714 1063.02912108  350.88375106],surprised,0.49693506956100464,[625.48464832 422.1755243  749.39046998 599.04894136],disgust,0.8422216176986694
[ 902.55881455  407.00054935 1040.80083629  599.31118872],fearful,0.9980314373970032,[284.67392162 408.01196341 404.57891775 582.35296153],neutral,0.8189280033111572,[615.96979593 149.07748321 738.37988164 329.26474754],fearful,0.9978206157684326,[277.1785391  107.82528681 422.67459679 313.11197732],calm,0.6468788385391235,[ 929.36996335  158.6087632  1063.46128426  348.92673316],surprised,0.49693506956100464,[626.24765063 424.00897664 750.29221208 599.97047502],disgust,0.8422216176986694
[ 903.46994009  406.63670651 1041.51633993  598.2569779 ],fearful,0.9980314373970032,[284.61251949 407.08401054 404.69483041 581.23860833],neutral,0.8189280033111572,[617.09655504 149.3580541  739.2707194  329.56746382],fearful,0.9978206157684326,[277.22173215 109.68320839 422.72599582 316.9402465 ],calm,0.6468788385391235,[ 928.86562554  157.11864184 1063.21859266  346.63063241],surprised,0.49693506956100464,[626.70614876 426.04277802 750.52224809 602.35443686],disgust,0.8422216176986694
[ 904.30524319  406.7973677  1042.07944745  597.80301924],fearful,0.9980314373970032,[284.62511597 406.74694306 404.83012286 580.91638494],neutral,0.8189280033111572,[618.19341046 149.79847383 740.17166742 329.42818416],fearful,0.9978206157684326,[277.23557994 109.82929667 422.63330137 318.50317826],calm,0.6468788385391235,[ 928.66674141  154.37845799 1063.27358095  343.16006439],surprised,0.49693506956100464,[627.28447995 428.26835282 750.61923837 604.40827164],disgust,0.8422216176986694
[ 905.08442343  407.16585242 1042.51590082  597.85100297],fearful,0.9980314373970032,[284.61876511 406.77560909 404.88524729 580.95157582],neutral,0.8189280033111572,[619.00102347 150.0841868  740.89632151 329.63173667],fearful,0.9978206157684326,[277.39773618 108.38595371 422.56867249 317.58516911],calm,0.6468788385391235,[ 928.69901473  151.55436739 1062.99370511  339.5958294 ],surprised,0.49693506956100464,[627.80778827 430.11744576 750.70238297 605.7505196 ],disgust,0.8422216176986694
[ 905.47267294  408.32847815 1042.81333238  599.70491762],fearful,0.9980314373970032,[284.71205056 406.65788102 405.12481531 580.92137725],neutral,0.8189280033111572,[620.04864998 152.43078847 741.68116374 333.7997869 ],fearful,0.9978206157684326,[276.35033616 106.9056868  421.67305412 314.85523042],calm,0.6468788385391235,[ 927.37732315  148.84831596 1061.32773264  336.79552249],surprised,0.49693506956100464,[628.49289909 431.53927695 751.01703647 605.93742635],disgust,0.8422216176986694
[ 905.61210041  409.00016646 1042.98900491  601.24160385],fearful,0.9980314373970032,[284.77945712 407.13665683 404.86607203 581.01336033],neutral,0.8189280033111572,[620.99199383 153.08851509 742.34284148 335.29707563],fearful,0.9978206157684326,[275.68946699 106.66737823 421.07031224 313.47246681],calm,0.6468788385391235,[ 924.65637548  146.38973989 1058.696865    335.36043151],surprised,0.49693506956100464,[628.7532599  432.55759188 750.99988099 605.82971846],disgust,0.8422216176986694
[ 905.59990378  409.30088065 1043.13927712  602.417623  ],fearful,0.9980314373970032,[284.82158403 407.4285596  404.666335   580.90014447],neutral,0.8189280033111572,[621.80288224 153.01230202 742.81372568 335.58954611],fearful,0.9978206157684326,[275.10281085 106.52056426 420.38839189 312.13838751],calm,0.6468788385391235,[ 923.28112611  144.7650995  1057.36325256  334.70720315],surprised,0.49693506956100464,[628.8108249  433.18558252 751.01384103 605.68864803],disgust,0.8422216176986694
[ 905.58569725  409.19154834 1043.18935392  602.79708012],fearful,0.9980314373970032,[284.75053887 407.68526698 404.47583524 580.7158609 ],neutral,0.8189280033111572,[622.36373675 151.97923188 743.05317352 333.82861014],fearful,0.9978206157684326,[274.71478216 106.53922699 419.83211629 310.98751148],calm,0.6468788385391235,[ 923.92464779  144.3611935  1057.64910784  334.21027746],surprised,0.49693506956100464,[628.67841196 433.48106506 750.98189697 605.25177458],disgust,0.8422216176986694
[ 905.45454872  408.92152166 1043.10942699  602.73126005],fearful,0.9980314373970032,[284.61040671 407.94461115 404.32072633 580.67001305],neutral,0.8189280033111572,[622.76878149 150.89217709 743.26072046 331.16047921],fearful,0.9978206157684326,[274.41541147 106.96536667 419.26384799 310.33599638],calm,0.6468788385391235,[ 924.35361777  144.25089847 1057.67371999  333.71143466],surprised,0.49693506956100464,[628.51602042 433.18235024 750.98883934 604.30521852],disgust,0.8422216176986694
[ 904.99954965  408.24406454 1042.58247842  601.79114472],sad,0.7450532913208008,[284.33138071 408.0043908  404.17474911 580.40518851],neutral,0.9976971745491028,[623.66758969 150.11426003 744.03235418 329.16263567],fearful,0.9950942993164062,[274.14186922 107.69818314 418.55244051 311.54560733],happy,0.8685477375984192,[ 924.50865212  143.91300445 1057.57962702  332.50843276],surprised,0.9762107133865356,[627.74342034 430.91278631 750.48650092 602.27464852],disgust,0.9997451901435852
[ 904.6301836   407.63465539 1042.24654137  601.01771383],sad,0.7450532913208008,[284.14584222 408.09881452 404.11070298 580.32108368],neutral,0.9976971745491028,[624.02825644 150.35581162 744.45143717 328.63254791],fearful,0.9950942993164062,[273.31806449 109.35643674 417.40430014 314.27246307],happy,0.8685477375984192,[ 924.40042801  142.68073404 1057.37615318  330.79260267],surprised,0.9762107133865356,[627.16759058 429.90945489 750.17660147 601.62865272],disgust,0.9997451901435852
[ 904.2697204   407.12882745 1041.99258517  600.28353825],sad,0.7450532913208008,[283.96968434 408.31045454 404.05963871 580.24010719],neutral,0.9976971745491028,[624.5983556  151.67357558 744.95434459 329.61672374],fearful,0.9950942993164062,[272.21742846 110.30964391 416.16186674 316.14729318],happy,0.8685477375984192,[ 923.07974418  140.98724182 1055.9303284   329.3459044 ],surprised,0.9762107133865356,[626.62685471 430.23196846 749.95244555 602.11698792],disgust,0.9997451901435852
[ 903.87205116  406.73001806 1041.74361421  599.59353357],sad,0.7450532913208008,[283.7954564  408.3700913  404.0363557  580.13862984],neutral,0.9976971745491028,[625.18963602 154.03657511 745.43057003 331.72010242],fearful,0.9950942993164062,[270.72230179 111.03604601 414.68227518 317.5959421 ],happy,0.8685477375984192,[ 922.14978596  140.62896471 1054.80152613  329.96420934],surprised,0.9762107133865356,[626.0828176  431.34803362 749.66802743 602.83432468],disgust,0.9997451901435852
[ 903.38783164  406.25441786 1041.43239232  598.77849121],sad,0.7450532913208008,[283.55897676 408.48741591 403.95385985 580.091633  ],neutral,0.9976971745491028,[625.70439401 155.84826409 745.96902574 334.34382518],fearful,0.9950942993164062,[269.29093579 111.19418811 413.21037952 318.2915945 ],happy,0.8685477375984192,[ 922.1251386   140.35692496 1054.5082699   330.64856923],surprised,0.9762107133865356,[625.52619135 432.51388065 749.54788209 603.56545947],disgust,0.9997451901435852
[ 902.39309379  405.5580309  1040.70153364  598.02278172],sad,0.7450532913208008,[283.05798864 408.5213845  403.68324537 580.03858114],neutral,0.9976971745491028,[626.3202966  156.60811617 746.64117274 336.48856362],fearful,0.9950942993164062,[266.54874125 110.13445704 410.35406095 318.02388088],happy,0.8685477375984192,[ 921.35511373  138.17788615 1052.79139661  328.41420123],surprised,0.9762107133865356,[625.54706946 433.02407707 750.12542076 604.33830446],disgust,0.9997451901435852
[ 901.37760789  405.09100699 1040.02653855  597.6998728 ],sad,0.7450532913208008,[282.69767395 408.4498678  403.44235987 579.95102153],neutral,0.9976971745491028,[626.43792301 156.56375932 746.7371992  337.59789453],fearful,0.9950942993164062,[264.94298705 109.19207652 408.46916242 317.68843667],happy,0.8685477375984192,[ 920.34110208  135.56151562 1051.14031735  325.64468363],surprised,0.9762107133865356,[625.57400547 433.00788268 750.6416317  604.9307615 ],disgust,0.9997451901435852
[ 900.12245996  404.6123363  1039.07411062  597.55136677],sad,0.7450532913208008,[282.31582562 408.47982134 403.19347568 579.89819957],neutral,0.9976971745491028,[626.12042055 156.09229249 746.3410762  337.96972372],fearful,0.9950942993164062,[264.105224   108.49088262 407.2181944  317.40062069],happy,0.8685477375984192,[ 919.3581145   133.4437452  1049.73738679  323.00033063],surprised,0.9762107133865356,[625.70854402 432.5632368  751.01341986 605.08102409],disgust,0.9997451901435852
[ 898.86355908  404.62737452 1037.93874884  597.79310028],sad,0.7450532913208008,[281.99620724 408.74743211 403.00617716 580.05518363],neutral,0.9976971745491028,[625.81910032 154.86217622 745.84869341 336.90405148],fearful,0.9950942993164062,[263.77130525 108.31425783 406.5404072  317.46988115],happy,0.8685477375984192,[ 919.33380539  131.04052325 1049.15085194  319.17042536],surprised,0.9762107133865356,[626.20383755 432.88233119 751.63398323 606.00492124],disgust,0.9997451901435852
[ 897.69789558  405.07503154 1036.7903832   598.38367308],sad,0.7450532913208008,[281.67053794 408.910336   402.75959599 580.13796954],neutral,0.9976971745491028,[625.57624297 154.0888408  745.25338078 335.9350285 ],fearful,0.9950942993164062,[263.65681015 108.30944693 406.11043113 317.49959224],happy,0.8685477375984192,[ 917.86177068  130.30833323 1046.84414216  316.70197617],surprised,0.9762107133865356,[626.74412144 434.08541459 752.31083619 607.4277108 ],disgust,0.9997451901435852
[ 896.00241631  405.19034617 1035.02638124  599.23234862],sad,0.7450532913208008,[281.22247274 409.19228343 402.43823566 580.28007359],neutral,0.9976971745491028,[625.10427018 151.84177531 744.6625574  332.92706621],fearful,0.9950942993164062,[263.24414416 108.31572473 405.40975002 317.32986492],happy,0.8685477375984192,[ 915.77881806  129.01233418 1044.52662911  314.04828739],surprised,0.9762107133865356,[627.28729646 435.91702597 752.68508583 609.04648532],disgust,0.9997451901435852
[ 894.79932703  405.07140071 1033.72546211  599.91459105],sad,0.7450532913208008,[280.51809191 409.61168976 402.27032672 580.63519298],neutral,0.9976971745491028,[624.4883979  150.35391255 744.3394185  330.43753868],fearful,0.9950942993164062,[263.1586837  108.61749705 405.09848712 317.45577463],happy,0.8685477375984192,[ 914.99185716  128.33094847 1043.74685597  312.08125207],surprised,0.9762107133865356,[627.46674917 436.57405539 752.71469629 609.42780215],disgust,0.9997451901435852
[ 893.66229793  404.99426205 1032.43606202  600.36379231],sad,0.7450532913208008,[280.01950991 409.75851202 402.21010565 580.73076095],neutral,0.9976971745491028,[623.53102142 148.89068579 743.57492037 327.56502042],fearful,0.9950942993164062,[263.21981015 109.03366075 405.06911176 317.88909636],happy,0.8685477375984192,[ 914.77118026  128.16755973 1043.69704407  310.82670837],surprised,0.9762107133865356,[627.373962   437.02200627 752.51962392 609.78510304],disgust,0.9997451901435852
[ 892.48886309  405.265087   1030.96559884  600.73717323],sad,0.7450532913208008,[279.64571066 410.08085537 402.15715512 580.90175883],neutral,0.9976971745491028,[622.65807017 148.41825205 743.03708007 325.87723516],fearful,0.9950942993164062,[263.20586764 109.67875158 404.97274694 318.57407655],happy,0.8685477375984192,[ 914.29824044  127.76523891 1043.47442707  309.8236756 ],surprised,0.9762107133865356,[626.99549124 437.02489981 752.08051825 609.951957  ],disgust,0.9997451901435852
[ 891.13587348  405.70441924 1029.55764067  601.24571639],sad,0.7450532913208008,[279.33358051 410.17088042 402.09097555 580.91761472],neutral,0.9976971745491028,[621.88423864 147.94648626 742.64985671 324.47394005],fearful,0.9950942993164062,[263.08396793 110.60722795 404.75500474 319.41049957],happy,0.8685477375984192,[ 913.17205783  127.63944238 1042.65152452  309.08770837],surprised,0.9762107133865356,[626.6431662  436.6319695  751.65669724 609.46353734],disgust,0.9997451901435852
[ 889.10255104  405.13769741 1027.61493831  601.36114439],,,[279.15422012 410.67766873 402.10631253 581.26785111],,,[620.22684806 147.75153734 741.30603634 323.84608879],,,[262.60410947 110.51768902 404.95579035 319.74498377],,,[ 909.93647607  128.18848436 1040.12579173  309.33384613],,,[626.12018713 435.42180741 751.1282851  607.98916205],,
[ 887.07912845  405.35686994 1025.72302627  602.01584758],,,[279.10428233 410.83542891 402.24101718 581.38850726],,,[618.68327305 147.92369987 739.89784614 323.49806406],,,[262.16338126 111.05595305 405.05645659 320.60988385],,,[ 907.58880833  128.40352602 1038.44778112  309.43171658],,,[625.7618279  434.62427736 750.88578699 607.36896591],,
[ 885.45767838  405.12724109 1024.15594422  602.37322442],,,[279.0457555  410.78851379 402.34096847 581.39985138],,,[617.24323136 147.92220833 738.36521704 323.13149638],,,[261.78016723 112.37537916 404.61768701 322.91064473],,,[ 906.32621098  128.27817044 1037.70527457  309.26397006],,,[625.3186847  433.55145829 750.59258538 606.69224161],,
[ 883.93236585  405.2233625  1022.70089794  602.80850987],,,[279.04831302 410.89034425 402.40299845 581.53316335],,,[615.77051065 147.65999387 736.69957634 322.72867277],,,[262.0548119  112.86568401 404.86771068 324.13404277],,,[ 905.67238108  127.91154463 1037.47267346  308.82764345],,,[625.0084863  432.60232265 750.44641851 606.09058735],,
[ 882.83524053  405.32686504 1021.58607077  603.09667666],,,[279.0383283  410.88215799 402.43586515 581.61050144],,,[613.68558806 147.48697263 734.1515981  322.48990664],,,[262.61615978 113.05231556 405.45691276 324.88056698],,,[ 905.43153988  127.64293015 1037.44502665  308.427061  ],,,[624.82905704 431.85263947 750.35092858 605.59208455],,
[ 881.46231815  405.18412002 1020.34006537  603.3657367 ],,,[278.91621697 410.77771338 402.3889213  581.60549394],,,[611.23359752 147.52537361 731.35708484 323.34368629],,,[263.45802121 113.37886897 406.43463696 325.74742223],,,[ 905.51813821  127.25587472 1037.65995458  307.84279536],,,[624.59435431 430.86342608 750.36073351 604.77913658],,
[ 880.4896193   405.17871737 1019.3969505   603.61915088],,,[278.83231996 410.81872007 402.36211901 581.62474623],,,[609.82296106 147.3376458  729.83095384 323.97457354],,,[264.19694397 113.44011816 407.26412319 326.3169646 ],,,[ 905.78128469  127.18922126 1038.01676395  307.60626479],,,[624.5708957  430.25977882 750.54051894 604.30901045],,
[ 879.85421617  405.34931574 1018.64616728  603.81011244],,,[278.71650978 410.89717944 402.3302925  581.70155914],,,[608.96163845 147.54167229 728.94596963 324.68505735],,,[264.96684728 113.71120189 408.17825795 327.11116738],,,[ 906.19994442  127.19057886 1038.51914645  307.4792794 ],,,[624.64883643 430.07164367 750.775536   604.19946248],,
[ 879.66753462  405.40765462 1018.37507322  603.88304675],,,[278.66154179 410.92471951 402.33645993 581.72767866],,,[608.66986915 147.53813482 728.63633558 325.05223767],,,[265.23837154 113.70834468 408.55281091 327.48772457],,,[ 906.36522     127.23406458 1038.74543228  307.42918397],,,[624.65253454 429.99233818 750.89431381 604.17803963],,
